77.231.128.44 - - [10/Jan/2011:06:12:04 +0100] "GET / HTTP/1.1" 200 - www.elquehacerrural.es "-" "Mozilla/5.0 (Windows; U; Windows NT 6.1; es-ES; rv:1.9.1.16) Gecko/20101130 Firefox/3.5.16 GTB7.1" "-"
77.231.128.44 - - [10/Jan/2011:06:12:08 +0100] "GET /favicon.ico HTTP/1.1" 404 2301 www.elquehacerrural.es "-" "Mozilla/5.0 (Windows; U; Windows NT 6.1; es-ES; rv:1.9.1.16) Gecko/20101130 Firefox/3.5.16 GTB7.1" "-"
77.231.128.44 - - [10/Jan/2011:06:12:32 +0100] "POST /controls/editarPalabrasControl.php HTTP/1.1" 200 1021 www.elquehacerrural.es "http://www.elquehacerrural.es/" "Mozilla/5.0 (Windows; U; Windows NT 6.1; es-ES; rv:1.9.1.16) Gecko/20101130 Firefox/3.5.16 GTB7.1" "-"
77.231.128.44 - - [10/Jan/2011:06:13:27 +0100] "POST /controls/editarPalabrasControl.php HTTP/1.1" 200 1778 www.elquehacerrural.es "http://www.elquehacerrural.es/controls/editarPalabrasControl.php" "Mozilla/5.0 (Windows; U; Windows NT 6.1; es-ES; rv:1.9.1.16) Gecko/20101130 Firefox/3.5.16 GTB7.1" "-"
77.231.128.44 - - [10/Jan/2011:06:14:28 +0100] "POST /controls/editarPalabrasControl.php HTTP/1.1" 200 1178 www.elquehacerrural.es "http://www.elquehacerrural.es/controls/editarPalabrasControl.php" "Mozilla/5.0 (Windows; U; Windows NT 6.1; es-ES; rv:1.9.1.16) Gecko/20101130 Firefox/3.5.16 GTB7.1" "-"
77.231.128.44 - - [10/Jan/2011:06:14:53 +0100] "POST /controls/editarPalabrasControl.php HTTP/1.1" 200 1007 www.elquehacerrural.es "http://www.elquehacerrural.es/controls/editarPalabrasControl.php" "Mozilla/5.0 (Windows; U; Windows NT 6.1; es-ES; rv:1.9.1.16) Gecko/20101130 Firefox/3.5.16 GTB7.1" "-"
77.231.128.44 - - [10/Jan/2011:06:15:32 +0100] "POST /controls/editarPalabrasControl.php HTTP/1.1" 200 1021 www.elquehacerrural.es "http://www.elquehacerrural.es/controls/editarPalabrasControl.php" "Mozilla/5.0 (Windows; U; Windows NT 6.1; es-ES; rv:1.9.1.16) Gecko/20101130 Firefox/3.5.16 GTB7.1" "-"
77.231.128.44 - - [10/Jan/2011:06:16:29 +0100] "POST /controls/editarPalabrasControl.php HTTP/1.1" 200 1197896 www.elquehacerrural.es "http://www.elquehacerrural.es/controls/editarPalabrasControl.php" "Mozilla/5.0 (Windows; U; Windows NT 6.1; es-ES; rv:1.9.1.16) Gecko/20101130 Firefox/3.5.16 GTB7.1" "-"
77.231.128.44 - - [10/Jan/2011:06:16:52 +0100] "POST /controls/editarPalabrasControl.php HTTP/1.1" 200 2147 www.elquehacerrural.es "http://www.elquehacerrural.es/controls/editarPalabrasControl.php" "Mozilla/5.0 (Windows; U; Windows NT 6.1; es-ES; rv:1.9.1.16) Gecko/20101130 Firefox/3.5.16 GTB7.1" "-"
77.231.128.44 - - [10/Jan/2011:06:18:29 +0100] "POST /controls/editarPalabrasControl.php HTTP/1.1" 200 1021 www.elquehacerrural.es "http://www.elquehacerrural.es/controls/editarPalabrasControl.php" "Mozilla/5.0 (Windows; U; Windows NT 6.1; es-ES; rv:1.9.1.16) Gecko/20101130 Firefox/3.5.16 GTB7.1" "-"
77.231.128.44 - - [10/Jan/2011:06:19:18 +0100] "POST /controls/editarPalabrasControl.php HTTP/1.1" 200 1198148 www.elquehacerrural.es "http://www.elquehacerrural.es/controls/editarPalabrasControl.php" "Mozilla/5.0 (Windows; U; Windows NT 6.1; es-ES; rv:1.9.1.16) Gecko/20101130 Firefox/3.5.16 GTB7.1" "-"
77.231.128.44 - - [10/Jan/2011:06:20:05 +0100] "POST /controls/editarPalabrasControl.php HTTP/1.1" 200 2262 www.elquehacerrural.es "http://www.elquehacerrural.es/controls/editarPalabrasControl.php" "Mozilla/5.0 (Windows; U; Windows NT 6.1; es-ES; rv:1.9.1.16) Gecko/20101130 Firefox/3.5.16 GTB7.1" "-"
77.231.128.44 - - [10/Jan/2011:06:20:12 +0100] "POST /controls/editarPalabrasControl.php HTTP/1.1" 200 2248 www.elquehacerrural.es "http://www.elquehacerrural.es/controls/editarPalabrasControl.php" "Mozilla/5.0 (Windows; U; Windows NT 6.1; es-ES; rv:1.9.1.16) Gecko/20101130 Firefox/3.5.16 GTB7.1" "-"
77.231.128.44 - - [10/Jan/2011:06:20:42 +0100] "POST /controls/editarPalabrasControl.php HTTP/1.1" 200 2915 www.elquehacerrural.es "http://www.elquehacerrural.es/controls/editarPalabrasControl.php" "Mozilla/5.0 (Windows; U; Windows NT 6.1; es-ES; rv:1.9.1.16) Gecko/20101130 Firefox/3.5.16 GTB7.1" "-"
77.231.128.44 - - [10/Jan/2011:06:20:59 +0100] "POST /controls/editarPalabrasControl.php HTTP/1.1" 200 1017 www.elquehacerrural.es "http://www.elquehacerrural.es/controls/editarPalabrasControl.php" "Mozilla/5.0 (Windows; U; Windows NT 6.1; es-ES; rv:1.9.1.16) Gecko/20101130 Firefox/3.5.16 GTB7.1" "-"
77.231.128.44 - - [10/Jan/2011:06:21:01 +0100] "POST /controls/editarPalabrasControl.php HTTP/1.1" 200 1031 www.elquehacerrural.es "http://www.elquehacerrural.es/controls/editarPalabrasControl.php" "Mozilla/5.0 (Windows; U; Windows NT 6.1; es-ES; rv:1.9.1.16) Gecko/20101130 Firefox/3.5.16 GTB7.1" "-"
77.231.128.44 - - [10/Jan/2011:06:21:03 +0100] "POST /controls/editarPalabrasControl.php HTTP/1.1" 200 1024 www.elquehacerrural.es "http://www.elquehacerrural.es/controls/editarPalabrasControl.php" "Mozilla/5.0 (Windows; U; Windows NT 6.1; es-ES; rv:1.9.1.16) Gecko/20101130 Firefox/3.5.16 GTB7.1" "-"
77.231.128.44 - - [10/Jan/2011:06:21:43 +0100] "POST /controls/editarPalabrasControl.php HTTP/1.1" 200 1021 www.elquehacerrural.es "http://www.elquehacerrural.es/controls/editarPalabrasControl.php" "Mozilla/5.0 (Windows; U; Windows NT 6.1; es-ES; rv:1.9.1.16) Gecko/20101130 Firefox/3.5.16 GTB7.1" "-"
77.231.128.44 - - [10/Jan/2011:06:22:09 +0100] "POST /controls/editarPalabrasControl.php HTTP/1.1" 200 1021 www.elquehacerrural.es "http://www.elquehacerrural.es/controls/editarPalabrasControl.php" "Mozilla/5.0 (Windows; U; Windows NT 6.1; es-ES; rv:1.9.1.16) Gecko/20101130 Firefox/3.5.16 GTB7.1" "-"
77.231.128.44 - - [10/Jan/2011:06:23:03 +0100] "POST /controls/editarPalabrasControl.php HTTP/1.1" 200 6298 www.elquehacerrural.es "http://www.elquehacerrural.es/controls/editarPalabrasControl.php" "Mozilla/5.0 (Windows; U; Windows NT 6.1; es-ES; rv:1.9.1.16) Gecko/20101130 Firefox/3.5.16 GTB7.1" "-"
77.231.128.44 - - [10/Jan/2011:06:25:12 +0100] "POST /controls/editarPalabrasControl.php HTTP/1.1" 200 3209 www.elquehacerrural.es "http://www.elquehacerrural.es/controls/editarPalabrasControl.php" "Mozilla/5.0 (Windows; U; Windows NT 6.1; es-ES; rv:1.9.1.16) Gecko/20101130 Firefox/3.5.16 GTB7.1" "-"
77.231.128.44 - - [10/Jan/2011:06:26:14 +0100] "POST /controls/editarPalabrasControl.php HTTP/1.1" 200 1021 www.elquehacerrural.es "http://www.elquehacerrural.es/controls/editarPalabrasControl.php" "Mozilla/5.0 (Windows; U; Windows NT 6.1; es-ES; rv:1.9.1.16) Gecko/20101130 Firefox/3.5.16 GTB7.1" "-"
77.231.128.44 - - [10/Jan/2011:06:26:56 +0100] "POST /controls/editarPalabrasControl.php HTTP/1.1" 200 3931 www.elquehacerrural.es "http://www.elquehacerrural.es/controls/editarPalabrasControl.php" "Mozilla/5.0 (Windows; U; Windows NT 6.1; es-ES; rv:1.9.1.16) Gecko/20101130 Firefox/3.5.16 GTB7.1" "-"
77.231.128.44 - - [10/Jan/2011:06:28:57 +0100] "POST /controls/editarPalabrasControl.php HTTP/1.1" 200 33149 www.elquehacerrural.es "http://www.elquehacerrural.es/controls/editarPalabrasControl.php" "Mozilla/5.0 (Windows; U; Windows NT 6.1; es-ES; rv:1.9.1.16) Gecko/20101130 Firefox/3.5.16 GTB7.1" "-"
77.231.128.44 - - [10/Jan/2011:06:32:18 +0100] "POST /controls/editarPalabrasControl.php HTTP/1.1" 200 1021 www.elquehacerrural.es "http://www.elquehacerrural.es/controls/editarPalabrasControl.php" "Mozilla/5.0 (Windows; U; Windows NT 6.1; es-ES; rv:1.9.1.16) Gecko/20101130 Firefox/3.5.16 GTB7.1" "-"
77.231.128.44 - - [10/Jan/2011:06:33:38 +0100] "POST /controls/editarPalabrasControl.php HTTP/1.1" 200 1717 www.elquehacerrural.es "http://www.elquehacerrural.es/controls/editarPalabrasControl.php" "Mozilla/5.0 (Windows; U; Windows NT 6.1; es-ES; rv:1.9.1.16) Gecko/20101130 Firefox/3.5.16 GTB7.1" "-"
77.231.128.44 - - [10/Jan/2011:06:34:06 +0100] "POST /controls/editarPalabrasControl.php HTTP/1.1" 200 1996 www.elquehacerrural.es "http://www.elquehacerrural.es/controls/editarPalabrasControl.php" "Mozilla/5.0 (Windows; U; Windows NT 6.1; es-ES; rv:1.9.1.16) Gecko/20101130 Firefox/3.5.16 GTB7.1" "-"
77.231.128.44 - - [10/Jan/2011:06:35:06 +0100] "POST /controls/editarPalabrasControl.php HTTP/1.1" 200 6956 www.elquehacerrural.es "http://www.elquehacerrural.es/controls/editarPalabrasControl.php" "Mozilla/5.0 (Windows; U; Windows NT 6.1; es-ES; rv:1.9.1.16) Gecko/20101130 Firefox/3.5.16 GTB7.1" "-"
77.231.128.44 - - [10/Jan/2011:06:38:00 +0100] "POST /controls/editarPalabrasControl.php HTTP/1.1" 200 13469 www.elquehacerrural.es "http://www.elquehacerrural.es/controls/editarPalabrasControl.php" "Mozilla/5.0 (Windows; U; Windows NT 6.1; es-ES; rv:1.9.1.16) Gecko/20101130 Firefox/3.5.16 GTB7.1" "-"
77.231.128.44 - - [10/Jan/2011:06:40:48 +0100] "POST /controls/editarPalabrasControl.php HTTP/1.1" 200 3572 www.elquehacerrural.es "http://www.elquehacerrural.es/controls/editarPalabrasControl.php" "Mozilla/5.0 (Windows; U; Windows NT 6.1; es-ES; rv:1.9.1.16) Gecko/20101130 Firefox/3.5.16 GTB7.1" "-"
77.231.128.44 - - [10/Jan/2011:06:42:54 +0100] "POST /controls/editarPalabrasControl.php HTTP/1.1" 200 1029 www.elquehacerrural.es "http://www.elquehacerrural.es/controls/editarPalabrasControl.php" "Mozilla/5.0 (Windows; U; Windows NT 6.1; es-ES; rv:1.9.1.16) Gecko/20101130 Firefox/3.5.16 GTB7.1" "-"
77.231.128.44 - - [10/Jan/2011:06:42:59 +0100] "POST /controls/editarPalabrasControl.php HTTP/1.1" 200 1029 www.elquehacerrural.es "http://www.elquehacerrural.es/controls/editarPalabrasControl.php" "Mozilla/5.0 (Windows; U; Windows NT 6.1; es-ES; rv:1.9.1.16) Gecko/20101130 Firefox/3.5.16 GTB7.1" "-"
77.231.128.44 - - [10/Jan/2011:06:43:28 +0100] "POST /controls/editarPalabrasControl.php HTTP/1.1" 200 1029 www.elquehacerrural.es "http://www.elquehacerrural.es/controls/editarPalabrasControl.php" "Mozilla/5.0 (Windows; U; Windows NT 6.1; es-ES; rv:1.9.1.16) Gecko/20101130 Firefox/3.5.16 GTB7.1" "-"
77.231.128.44 - - [10/Jan/2011:06:43:36 +0100] "POST /controls/editarPalabrasControl.php HTTP/1.1" 200 1029 www.elquehacerrural.es "http://www.elquehacerrural.es/controls/editarPalabrasControl.php" "Mozilla/5.0 (Windows; U; Windows NT 6.1; es-ES; rv:1.9.1.16) Gecko/20101130 Firefox/3.5.16 GTB7.1" "-"
77.231.128.44 - - [10/Jan/2011:06:44:17 +0100] "POST /controls/editarPalabrasControl.php HTTP/1.1" 200 3551 www.elquehacerrural.es "http://www.elquehacerrural.es/controls/editarPalabrasControl.php" "Mozilla/5.0 (Windows; U; Windows NT 6.1; es-ES; rv:1.9.1.16) Gecko/20101130 Firefox/3.5.16 GTB7.1" "-"
77.231.128.44 - - [10/Jan/2011:06:45:16 +0100] "POST /controls/editarPalabrasControl.php HTTP/1.1" 200 1673 www.elquehacerrural.es "http://www.elquehacerrural.es/controls/editarPalabrasControl.php" "Mozilla/5.0 (Windows; U; Windows NT 6.1; es-ES; rv:1.9.1.16) Gecko/20101130 Firefox/3.5.16 GTB7.1" "-"
77.231.128.44 - - [10/Jan/2011:06:45:38 +0100] "POST /controls/editarPalabrasControl.php HTTP/1.1" 200 1026 www.elquehacerrural.es "http://www.elquehacerrural.es/controls/editarPalabrasControl.php" "Mozilla/5.0 (Windows; U; Windows NT 6.1; es-ES; rv:1.9.1.16) Gecko/20101130 Firefox/3.5.16 GTB7.1" "-"
77.231.128.44 - - [10/Jan/2011:06:45:47 +0100] "POST /controls/editarPalabrasControl.php HTTP/1.1" 200 1026 www.elquehacerrural.es "http://www.elquehacerrural.es/controls/editarPalabrasControl.php" "Mozilla/5.0 (Windows; U; Windows NT 6.1; es-ES; rv:1.9.1.16) Gecko/20101130 Firefox/3.5.16 GTB7.1" "-"
77.231.128.44 - - [10/Jan/2011:06:46:40 +0100] "POST /controls/editarPalabrasControl.php HTTP/1.1" 200 1021 www.elquehacerrural.es "http://www.elquehacerrural.es/controls/editarPalabrasControl.php" "Mozilla/5.0 (Windows; U; Windows NT 6.1; es-ES; rv:1.9.1.16) Gecko/20101130 Firefox/3.5.16 GTB7.1" "-"
77.231.128.44 - - [10/Jan/2011:06:47:04 +0100] "POST /controls/editarPalabrasControl.php HTTP/1.1" 200 1021 www.elquehacerrural.es "http://www.elquehacerrural.es/controls/editarPalabrasControl.php" "Mozilla/5.0 (Windows; U; Windows NT 6.1; es-ES; rv:1.9.1.16) Gecko/20101130 Firefox/3.5.16 GTB7.1" "-"
77.231.128.44 - - [10/Jan/2011:06:47:41 +0100] "POST /controls/editarPalabrasControl.php HTTP/1.1" 200 1021 www.elquehacerrural.es "http://www.elquehacerrural.es/controls/editarPalabrasControl.php" "Mozilla/5.0 (Windows; U; Windows NT 6.1; es-ES; rv:1.9.1.16) Gecko/20101130 Firefox/3.5.16 GTB7.1" "-"
77.231.128.44 - - [10/Jan/2011:06:48:42 +0100] "POST /controls/editarPalabrasControl.php HTTP/1.1" 200 1035 www.elquehacerrural.es "http://www.elquehacerrural.es/controls/editarPalabrasControl.php" "Mozilla/5.0 (Windows; U; Windows NT 6.1; es-ES; rv:1.9.1.16) Gecko/20101130 Firefox/3.5.16 GTB7.1" "-"
77.231.128.44 - - [10/Jan/2011:06:49:17 +0100] "POST /controls/editarPalabrasControl.php HTTP/1.1" 200 1021 www.elquehacerrural.es "http://www.elquehacerrural.es/controls/editarPalabrasControl.php" "Mozilla/5.0 (Windows; U; Windows NT 6.1; es-ES; rv:1.9.1.16) Gecko/20101130 Firefox/3.5.16 GTB7.1" "-"
77.231.128.44 - - [10/Jan/2011:06:50:02 +0100] "POST /controls/editarPalabrasControl.php HTTP/1.1" 200 1007 www.elquehacerrural.es "http://www.elquehacerrural.es/controls/editarPalabrasControl.php" "Mozilla/5.0 (Windows; U; Windows NT 6.1; es-ES; rv:1.9.1.16) Gecko/20101130 Firefox/3.5.16 GTB7.1" "-"
77.231.128.44 - - [10/Jan/2011:06:50:31 +0100] "POST /controls/editarPalabrasControl.php HTTP/1.1" 200 1021 www.elquehacerrural.es "http://www.elquehacerrural.es/controls/editarPalabrasControl.php" "Mozilla/5.0 (Windows; U; Windows NT 6.1; es-ES; rv:1.9.1.16) Gecko/20101130 Firefox/3.5.16 GTB7.1" "-"
77.231.128.44 - - [10/Jan/2011:06:52:10 +0100] "POST /controls/editarPalabrasControl.php HTTP/1.1" 200 1035 www.elquehacerrural.es "http://www.elquehacerrural.es/controls/editarPalabrasControl.php" "Mozilla/5.0 (Windows; U; Windows NT 6.1; es-ES; rv:1.9.1.16) Gecko/20101130 Firefox/3.5.16 GTB7.1" "-"
77.231.128.44 - - [10/Jan/2011:06:52:32 +0100] "POST /controls/editarPalabrasControl.php HTTP/1.1" 200 1007 www.elquehacerrural.es "http://www.elquehacerrural.es/controls/editarPalabrasControl.php" "Mozilla/5.0 (Windows; U; Windows NT 6.1; es-ES; rv:1.9.1.16) Gecko/20101130 Firefox/3.5.16 GTB7.1" "-"
77.231.128.44 - - [10/Jan/2011:06:52:58 +0100] "POST /controls/editarPalabrasControl.php HTTP/1.1" 200 1021 www.elquehacerrural.es "http://www.elquehacerrural.es/controls/editarPalabrasControl.php" "Mozilla/5.0 (Windows; U; Windows NT 6.1; es-ES; rv:1.9.1.16) Gecko/20101130 Firefox/3.5.16 GTB7.1" "-"
77.231.128.44 - - [10/Jan/2011:06:54:09 +0100] "POST /controls/editarPalabrasControl.php HTTP/1.1" 200 1042 www.elquehacerrural.es "http://www.elquehacerrural.es/controls/editarPalabrasControl.php" "Mozilla/5.0 (Windows; U; Windows NT 6.1; es-ES; rv:1.9.1.16) Gecko/20101130 Firefox/3.5.16 GTB7.1" "-"
77.231.128.44 - - [10/Jan/2011:06:54:36 +0100] "POST /controls/editarPalabrasControl.php HTTP/1.1" 200 1007 www.elquehacerrural.es "http://www.elquehacerrural.es/controls/editarPalabrasControl.php" "Mozilla/5.0 (Windows; U; Windows NT 6.1; es-ES; rv:1.9.1.16) Gecko/20101130 Firefox/3.5.16 GTB7.1" "-"
77.231.128.44 - - [10/Jan/2011:06:55:42 +0100] "POST /controls/editarPalabrasControl.php HTTP/1.1" 200 1021 www.elquehacerrural.es "http://www.elquehacerrural.es/controls/editarPalabrasControl.php" "Mozilla/5.0 (Windows; U; Windows NT 6.1; es-ES; rv:1.9.1.16) Gecko/20101130 Firefox/3.5.16 GTB7.1" "-"
77.231.128.44 - - [10/Jan/2011:06:56:14 +0100] "POST /controls/editarPalabrasControl.php HTTP/1.1" 200 1021 www.elquehacerrural.es "http://www.elquehacerrural.es/controls/editarPalabrasControl.php" "Mozilla/5.0 (Windows; U; Windows NT 6.1; es-ES; rv:1.9.1.16) Gecko/20101130 Firefox/3.5.16 GTB7.1" "-"
77.231.128.44 - - [10/Jan/2011:06:59:07 +0100] "POST /controls/editarPalabrasControl.php HTTP/1.1" 200 1042 www.elquehacerrural.es "http://www.elquehacerrural.es/controls/editarPalabrasControl.php" "Mozilla/5.0 (Windows; U; Windows NT 6.1; es-ES; rv:1.9.1.16) Gecko/20101130 Firefox/3.5.16 GTB7.1" "-"
77.231.128.44 - - [10/Jan/2011:07:00:50 +0100] "POST /controls/editarPalabrasControl.php HTTP/1.1" 200 1056 www.elquehacerrural.es "http://www.elquehacerrural.es/controls/editarPalabrasControl.php" "Mozilla/5.0 (Windows; U; Windows NT 6.1; es-ES; rv:1.9.1.16) Gecko/20101130 Firefox/3.5.16 GTB7.1" "-"
77.231.128.44 - - [10/Jan/2011:07:01:18 +0100] "POST /controls/editarPalabrasControl.php HTTP/1.1" 200 1021 www.elquehacerrural.es "http://www.elquehacerrural.es/controls/editarPalabrasControl.php" "Mozilla/5.0 (Windows; U; Windows NT 6.1; es-ES; rv:1.9.1.16) Gecko/20101130 Firefox/3.5.16 GTB7.1" "-"
77.231.128.44 - - [10/Jan/2011:07:01:41 +0100] "POST /controls/editarPalabrasControl.php HTTP/1.1" 200 1021 www.elquehacerrural.es "http://www.elquehacerrural.es/controls/editarPalabrasControl.php" "Mozilla/5.0 (Windows; U; Windows NT 6.1; es-ES; rv:1.9.1.16) Gecko/20101130 Firefox/3.5.16 GTB7.1" "-"
77.231.128.44 - - [10/Jan/2011:07:02:54 +0100] "POST /controls/editarPalabrasControl.php HTTP/1.1" 200 1021 www.elquehacerrural.es "http://www.elquehacerrural.es/controls/editarPalabrasControl.php" "Mozilla/5.0 (Windows; U; Windows NT 6.1; es-ES; rv:1.9.1.16) Gecko/20101130 Firefox/3.5.16 GTB7.1" "-"
77.231.128.44 - - [10/Jan/2011:07:03:35 +0100] "POST /controls/editarPalabrasControl.php HTTP/1.1" 200 1021 www.elquehacerrural.es "http://www.elquehacerrural.es/controls/editarPalabrasControl.php" "Mozilla/5.0 (Windows; U; Windows NT 6.1; es-ES; rv:1.9.1.16) Gecko/20101130 Firefox/3.5.16 GTB7.1" "-"
77.231.128.44 - - [10/Jan/2011:07:05:31 +0100] "POST /controls/editarPalabrasControl.php HTTP/1.1" 200 1035 www.elquehacerrural.es "http://www.elquehacerrural.es/controls/editarPalabrasControl.php" "Mozilla/5.0 (Windows; U; Windows NT 6.1; es-ES; rv:1.9.1.16) Gecko/20101130 Firefox/3.5.16 GTB7.1" "-"
77.231.128.44 - - [10/Jan/2011:07:06:11 +0100] "POST /controls/editarPalabrasControl.php HTTP/1.1" 200 1007 www.elquehacerrural.es "http://www.elquehacerrural.es/controls/editarPalabrasControl.php" "Mozilla/5.0 (Windows; U; Windows NT 6.1; es-ES; rv:1.9.1.16) Gecko/20101130 Firefox/3.5.16 GTB7.1" "-"
77.231.128.44 - - [10/Jan/2011:07:08:26 +0100] "POST /controls/editarPalabrasControl.php HTTP/1.1" 200 1021 www.elquehacerrural.es "http://www.elquehacerrural.es/controls/editarPalabrasControl.php" "Mozilla/5.0 (Windows; U; Windows NT 6.1; es-ES; rv:1.9.1.16) Gecko/20101130 Firefox/3.5.16 GTB7.1" "-"
77.231.128.44 - - [10/Jan/2011:07:08:53 +0100] "POST /controls/editarPalabrasControl.php HTTP/1.1" 200 1021 www.elquehacerrural.es "http://www.elquehacerrural.es/controls/editarPalabrasControl.php" "Mozilla/5.0 (Windows; U; Windows NT 6.1; es-ES; rv:1.9.1.16) Gecko/20101130 Firefox/3.5.16 GTB7.1" "-"
77.231.128.44 - - [10/Jan/2011:07:09:17 +0100] "POST /controls/editarPalabrasControl.php HTTP/1.1" 200 1021 www.elquehacerrural.es "http://www.elquehacerrural.es/controls/editarPalabrasControl.php" "Mozilla/5.0 (Windows; U; Windows NT 6.1; es-ES; rv:1.9.1.16) Gecko/20101130 Firefox/3.5.16 GTB7.1" "-"
77.231.128.44 - - [10/Jan/2011:07:09:47 +0100] "POST /controls/editarPalabrasControl.php HTTP/1.1" 200 1021 www.elquehacerrural.es "http://www.elquehacerrural.es/controls/editarPalabrasControl.php" "Mozilla/5.0 (Windows; U; Windows NT 6.1; es-ES; rv:1.9.1.16) Gecko/20101130 Firefox/3.5.16 GTB7.1" "-"
77.231.128.44 - - [10/Jan/2011:07:11:29 +0100] "POST /controls/editarPalabrasControl.php HTTP/1.1" 200 1035 www.elquehacerrural.es "http://www.elquehacerrural.es/controls/editarPalabrasControl.php" "Mozilla/5.0 (Windows; U; Windows NT 6.1; es-ES; rv:1.9.1.16) Gecko/20101130 Firefox/3.5.16 GTB7.1" "-"
77.231.128.44 - - [10/Jan/2011:07:12:08 +0100] "POST /controls/editarPalabrasControl.php HTTP/1.1" 200 1014 www.elquehacerrural.es "http://www.elquehacerrural.es/controls/editarPalabrasControl.php" "Mozilla/5.0 (Windows; U; Windows NT 6.1; es-ES; rv:1.9.1.16) Gecko/20101130 Firefox/3.5.16 GTB7.1" "-"
77.231.128.44 - - [10/Jan/2011:07:12:47 +0100] "POST /controls/editarPalabrasControl.php HTTP/1.1" 200 1021 www.elquehacerrural.es "http://www.elquehacerrural.es/controls/editarPalabrasControl.php" "Mozilla/5.0 (Windows; U; Windows NT 6.1; es-ES; rv:1.9.1.16) Gecko/20101130 Firefox/3.5.16 GTB7.1" "-"
77.231.128.44 - - [10/Jan/2011:07:13:09 +0100] "POST /controls/editarPalabrasControl.php HTTP/1.1" 200 1007 www.elquehacerrural.es "http://www.elquehacerrural.es/controls/editarPalabrasControl.php" "Mozilla/5.0 (Windows; U; Windows NT 6.1; es-ES; rv:1.9.1.16) Gecko/20101130 Firefox/3.5.16 GTB7.1" "-"
77.231.128.44 - - [10/Jan/2011:07:13:50 +0100] "POST /controls/editarPalabrasControl.php HTTP/1.1" 200 1021 www.elquehacerrural.es "http://www.elquehacerrural.es/controls/editarPalabrasControl.php" "Mozilla/5.0 (Windows; U; Windows NT 6.1; es-ES; rv:1.9.1.16) Gecko/20101130 Firefox/3.5.16 GTB7.1" "-"
77.231.128.44 - - [10/Jan/2011:07:14:16 +0100] "POST /controls/editarPalabrasControl.php HTTP/1.1" 200 1021 www.elquehacerrural.es "http://www.elquehacerrural.es/controls/editarPalabrasControl.php" "Mozilla/5.0 (Windows; U; Windows NT 6.1; es-ES; rv:1.9.1.16) Gecko/20101130 Firefox/3.5.16 GTB7.1" "-"
77.231.128.44 - - [10/Jan/2011:07:15:11 +0100] "POST /controls/editarPalabrasControl.php HTTP/1.1" 200 1014 www.elquehacerrural.es "http://www.elquehacerrural.es/controls/editarPalabrasControl.php" "Mozilla/5.0 (Windows; U; Windows NT 6.1; es-ES; rv:1.9.1.16) Gecko/20101130 Firefox/3.5.16 GTB7.1" "-"
77.231.128.44 - - [10/Jan/2011:07:16:02 +0100] "POST /controls/editarPalabrasControl.php HTTP/1.1" 200 1021 www.elquehacerrural.es "http://www.elquehacerrural.es/controls/editarPalabrasControl.php" "Mozilla/5.0 (Windows; U; Windows NT 6.1; es-ES; rv:1.9.1.16) Gecko/20101130 Firefox/3.5.16 GTB7.1" "-"
77.231.128.44 - - [10/Jan/2011:07:16:41 +0100] "POST /controls/editarPalabrasControl.php HTTP/1.1" 200 1007 www.elquehacerrural.es "http://www.elquehacerrural.es/controls/editarPalabrasControl.php" "Mozilla/5.0 (Windows; U; Windows NT 6.1; es-ES; rv:1.9.1.16) Gecko/20101130 Firefox/3.5.16 GTB7.1" "-"
77.231.128.44 - - [10/Jan/2011:07:17:40 +0100] "POST /controls/editarPalabrasControl.php HTTP/1.1" 200 1021 www.elquehacerrural.es "http://www.elquehacerrural.es/controls/editarPalabrasControl.php" "Mozilla/5.0 (Windows; U; Windows NT 6.1; es-ES; rv:1.9.1.16) Gecko/20101130 Firefox/3.5.16 GTB7.1" "-"
77.231.128.44 - - [10/Jan/2011:07:18:11 +0100] "POST /controls/editarPalabrasControl.php HTTP/1.1" 200 1014 www.elquehacerrural.es "http://www.elquehacerrural.es/controls/editarPalabrasControl.php" "Mozilla/5.0 (Windows; U; Windows NT 6.1; es-ES; rv:1.9.1.16) Gecko/20101130 Firefox/3.5.16 GTB7.1" "-"
77.231.128.44 - - [10/Jan/2011:07:18:48 +0100] "POST /controls/editarPalabrasControl.php HTTP/1.1" 200 1021 www.elquehacerrural.es "http://www.elquehacerrural.es/controls/editarPalabrasControl.php" "Mozilla/5.0 (Windows; U; Windows NT 6.1; es-ES; rv:1.9.1.16) Gecko/20101130 Firefox/3.5.16 GTB7.1" "-"
77.231.128.44 - - [10/Jan/2011:07:19:24 +0100] "POST /controls/editarPalabrasControl.php HTTP/1.1" 200 1007 www.elquehacerrural.es "http://www.elquehacerrural.es/controls/editarPalabrasControl.php" "Mozilla/5.0 (Windows; U; Windows NT 6.1; es-ES; rv:1.9.1.16) Gecko/20101130 Firefox/3.5.16 GTB7.1" "-"
77.231.128.44 - - [10/Jan/2011:07:19:51 +0100] "POST /controls/editarPalabrasControl.php HTTP/1.1" 200 1021 www.elquehacerrural.es "http://www.elquehacerrural.es/controls/editarPalabrasControl.php" "Mozilla/5.0 (Windows; U; Windows NT 6.1; es-ES; rv:1.9.1.16) Gecko/20101130 Firefox/3.5.16 GTB7.1" "-"
77.231.128.44 - - [10/Jan/2011:07:20:13 +0100] "POST /controls/editarPalabrasControl.php HTTP/1.1" 200 1021 www.elquehacerrural.es "http://www.elquehacerrural.es/controls/editarPalabrasControl.php" "Mozilla/5.0 (Windows; U; Windows NT 6.1; es-ES; rv:1.9.1.16) Gecko/20101130 Firefox/3.5.16 GTB7.1" "-"
77.231.128.44 - - [10/Jan/2011:07:20:37 +0100] "POST /controls/editarPalabrasControl.php HTTP/1.1" 200 1021 www.elquehacerrural.es "http://www.elquehacerrural.es/controls/editarPalabrasControl.php" "Mozilla/5.0 (Windows; U; Windows NT 6.1; es-ES; rv:1.9.1.16) Gecko/20101130 Firefox/3.5.16 GTB7.1" "-"
77.231.128.44 - - [10/Jan/2011:07:21:31 +0100] "POST /controls/editarPalabrasControl.php HTTP/1.1" 200 1021 www.elquehacerrural.es "http://www.elquehacerrural.es/controls/editarPalabrasControl.php" "Mozilla/5.0 (Windows; U; Windows NT 6.1; es-ES; rv:1.9.1.16) Gecko/20101130 Firefox/3.5.16 GTB7.1" "-"
77.231.128.44 - - [10/Jan/2011:07:22:06 +0100] "POST /controls/editarPalabrasControl.php HTTP/1.1" 200 1014 www.elquehacerrural.es "http://www.elquehacerrural.es/controls/editarPalabrasControl.php" "Mozilla/5.0 (Windows; U; Windows NT 6.1; es-ES; rv:1.9.1.16) Gecko/20101130 Firefox/3.5.16 GTB7.1" "-"
77.231.128.44 - - [10/Jan/2011:07:22:28 +0100] "POST /controls/editarPalabrasControl.php HTTP/1.1" 200 1021 www.elquehacerrural.es "http://www.elquehacerrural.es/controls/editarPalabrasControl.php" "Mozilla/5.0 (Windows; U; Windows NT 6.1; es-ES; rv:1.9.1.16) Gecko/20101130 Firefox/3.5.16 GTB7.1" "-"
77.231.128.44 - - [10/Jan/2011:07:22:56 +0100] "POST /controls/editarPalabrasControl.php HTTP/1.1" 200 1021 www.elquehacerrural.es "http://www.elquehacerrural.es/controls/editarPalabrasControl.php" "Mozilla/5.0 (Windows; U; Windows NT 6.1; es-ES; rv:1.9.1.16) Gecko/20101130 Firefox/3.5.16 GTB7.1" "-"
77.231.128.44 - - [10/Jan/2011:07:24:01 +0100] "POST /controls/editarPalabrasControl.php HTTP/1.1" 200 1007 www.elquehacerrural.es "http://www.elquehacerrural.es/controls/editarPalabrasControl.php" "Mozilla/5.0 (Windows; U; Windows NT 6.1; es-ES; rv:1.9.1.16) Gecko/20101130 Firefox/3.5.16 GTB7.1" "-"
77.231.128.44 - - [10/Jan/2011:07:24:31 +0100] "POST /controls/editarPalabrasControl.php HTTP/1.1" 200 1021 www.elquehacerrural.es "http://www.elquehacerrural.es/controls/editarPalabrasControl.php" "Mozilla/5.0 (Windows; U; Windows NT 6.1; es-ES; rv:1.9.1.16) Gecko/20101130 Firefox/3.5.16 GTB7.1" "-"
77.231.128.44 - - [10/Jan/2011:07:25:00 +0100] "POST /controls/editarPalabrasControl.php HTTP/1.1" 200 1021 www.elquehacerrural.es "http://www.elquehacerrural.es/controls/editarPalabrasControl.php" "Mozilla/5.0 (Windows; U; Windows NT 6.1; es-ES; rv:1.9.1.16) Gecko/20101130 Firefox/3.5.16 GTB7.1" "-"
77.231.128.44 - - [10/Jan/2011:07:25:41 +0100] "POST /controls/editarPalabrasControl.php HTTP/1.1" 200 1007 www.elquehacerrural.es "http://www.elquehacerrural.es/controls/editarPalabrasControl.php" "Mozilla/5.0 (Windows; U; Windows NT 6.1; es-ES; rv:1.9.1.16) Gecko/20101130 Firefox/3.5.16 GTB7.1" "-"
77.231.128.44 - - [10/Jan/2011:07:26:05 +0100] "POST /controls/editarPalabrasControl.php HTTP/1.1" 200 1021 www.elquehacerrural.es "http://www.elquehacerrural.es/controls/editarPalabrasControl.php" "Mozilla/5.0 (Windows; U; Windows NT 6.1; es-ES; rv:1.9.1.16) Gecko/20101130 Firefox/3.5.16 GTB7.1" "-"
77.231.128.44 - - [10/Jan/2011:07:26:54 +0100] "POST /controls/editarPalabrasControl.php HTTP/1.1" 200 1021 www.elquehacerrural.es "http://www.elquehacerrural.es/controls/editarPalabrasControl.php" "Mozilla/5.0 (Windows; U; Windows NT 6.1; es-ES; rv:1.9.1.16) Gecko/20101130 Firefox/3.5.16 GTB7.1" "-"
77.231.128.44 - - [10/Jan/2011:07:27:26 +0100] "POST /controls/editarPalabrasControl.php HTTP/1.1" 200 1007 www.elquehacerrural.es "http://www.elquehacerrural.es/controls/editarPalabrasControl.php" "Mozilla/5.0 (Windows; U; Windows NT 6.1; es-ES; rv:1.9.1.16) Gecko/20101130 Firefox/3.5.16 GTB7.1" "-"
77.231.128.44 - - [10/Jan/2011:07:29:02 +0100] "POST /controls/editarPalabrasControl.php HTTP/1.1" 200 1021 www.elquehacerrural.es "http://www.elquehacerrural.es/controls/editarPalabrasControl.php" "Mozilla/5.0 (Windows; U; Windows NT 6.1; es-ES; rv:1.9.1.16) Gecko/20101130 Firefox/3.5.16 GTB7.1" "-"
77.231.128.44 - - [10/Jan/2011:07:29:46 +0100] "POST /controls/editarPalabrasControl.php HTTP/1.1" 200 1021 www.elquehacerrural.es "http://www.elquehacerrural.es/controls/editarPalabrasControl.php" "Mozilla/5.0 (Windows; U; Windows NT 6.1; es-ES; rv:1.9.1.16) Gecko/20101130 Firefox/3.5.16 GTB7.1" "-"
77.231.128.44 - - [10/Jan/2011:07:44:58 +0100] "POST /controls/editarPalabrasControl.php HTTP/1.1" 200 1042 www.elquehacerrural.es "http://www.elquehacerrural.es/controls/editarPalabrasControl.php" "Mozilla/5.0 (Windows; U; Windows NT 6.1; es-ES; rv:1.9.1.16) Gecko/20101130 Firefox/3.5.16 GTB7.1" "-"
77.231.128.44 - - [10/Jan/2011:07:45:38 +0100] "POST /controls/editarPalabrasControl.php HTTP/1.1" 200 1014 www.elquehacerrural.es "http://www.elquehacerrural.es/controls/editarPalabrasControl.php" "Mozilla/5.0 (Windows; U; Windows NT 6.1; es-ES; rv:1.9.1.16) Gecko/20101130 Firefox/3.5.16 GTB7.1" "-"
77.231.128.44 - - [10/Jan/2011:07:46:14 +0100] "POST /controls/editarPalabrasControl.php HTTP/1.1" 200 1021 www.elquehacerrural.es "http://www.elquehacerrural.es/controls/editarPalabrasControl.php" "Mozilla/5.0 (Windows; U; Windows NT 6.1; es-ES; rv:1.9.1.16) Gecko/20101130 Firefox/3.5.16 GTB7.1" "-"
77.231.128.44 - - [10/Jan/2011:07:46:49 +0100] "POST /controls/editarPalabrasControl.php HTTP/1.1" 200 1021 www.elquehacerrural.es "http://www.elquehacerrural.es/controls/editarPalabrasControl.php" "Mozilla/5.0 (Windows; U; Windows NT 6.1; es-ES; rv:1.9.1.16) Gecko/20101130 Firefox/3.5.16 GTB7.1" "-"
77.231.128.44 - - [10/Jan/2011:07:47:12 +0100] "POST /controls/editarPalabrasControl.php HTTP/1.1" 200 1014 www.elquehacerrural.es "http://www.elquehacerrural.es/controls/editarPalabrasControl.php" "Mozilla/5.0 (Windows; U; Windows NT 6.1; es-ES; rv:1.9.1.16) Gecko/20101130 Firefox/3.5.16 GTB7.1" "-"
77.231.128.44 - - [10/Jan/2011:07:51:02 +0100] "POST /controls/editarPalabrasControl.php HTTP/1.1" 200 1056 www.elquehacerrural.es "http://www.elquehacerrural.es/controls/editarPalabrasControl.php" "Mozilla/5.0 (Windows; U; Windows NT 6.1; es-ES; rv:1.9.1.16) Gecko/20101130 Firefox/3.5.16 GTB7.1" "-"
77.231.128.44 - - [10/Jan/2011:07:51:38 +0100] "POST /controls/editarPalabrasControl.php HTTP/1.1" 200 1021 www.elquehacerrural.es "http://www.elquehacerrural.es/controls/editarPalabrasControl.php" "Mozilla/5.0 (Windows; U; Windows NT 6.1; es-ES; rv:1.9.1.16) Gecko/20101130 Firefox/3.5.16 GTB7.1" "-"
77.231.128.44 - - [10/Jan/2011:07:52:16 +0100] "POST /controls/editarPalabrasControl.php HTTP/1.1" 200 1014 www.elquehacerrural.es "http://www.elquehacerrural.es/controls/editarPalabrasControl.php" "Mozilla/5.0 (Windows; U; Windows NT 6.1; es-ES; rv:1.9.1.16) Gecko/20101130 Firefox/3.5.16 GTB7.1" "-"
77.231.128.44 - - [10/Jan/2011:07:52:44 +0100] "POST /controls/editarPalabrasControl.php HTTP/1.1" 200 1021 www.elquehacerrural.es "http://www.elquehacerrural.es/controls/editarPalabrasControl.php" "Mozilla/5.0 (Windows; U; Windows NT 6.1; es-ES; rv:1.9.1.16) Gecko/20101130 Firefox/3.5.16 GTB7.1" "-"
77.231.128.44 - - [10/Jan/2011:07:54:05 +0100] "POST /controls/editarPalabrasControl.php HTTP/1.1" 200 1021 www.elquehacerrural.es "http://www.elquehacerrural.es/controls/editarPalabrasControl.php" "Mozilla/5.0 (Windows; U; Windows NT 6.1; es-ES; rv:1.9.1.16) Gecko/20101130 Firefox/3.5.16 GTB7.1" "-"
77.231.128.44 - - [10/Jan/2011:07:54:29 +0100] "POST /controls/editarPalabrasControl.php HTTP/1.1" 200 1696 www.elquehacerrural.es "http://www.elquehacerrural.es/controls/editarPalabrasControl.php" "Mozilla/5.0 (Windows; U; Windows NT 6.1; es-ES; rv:1.9.1.16) Gecko/20101130 Firefox/3.5.16 GTB7.1" "-"
77.231.128.44 - - [10/Jan/2011:07:55:37 +0100] "POST /controls/editarPalabrasControl.php HTTP/1.1" 200 1021 www.elquehacerrural.es "http://www.elquehacerrural.es/controls/editarPalabrasControl.php" "Mozilla/5.0 (Windows; U; Windows NT 6.1; es-ES; rv:1.9.1.16) Gecko/20101130 Firefox/3.5.16 GTB7.1" "-"
77.231.128.44 - - [10/Jan/2011:07:56:06 +0100] "POST /controls/editarPalabrasControl.php HTTP/1.1" 200 1021 www.elquehacerrural.es "http://www.elquehacerrural.es/controls/editarPalabrasControl.php" "Mozilla/5.0 (Windows; U; Windows NT 6.1; es-ES; rv:1.9.1.16) Gecko/20101130 Firefox/3.5.16 GTB7.1" "-"
77.231.128.44 - - [10/Jan/2011:07:56:55 +0100] "POST /controls/editarPalabrasControl.php HTTP/1.1" 200 1021 www.elquehacerrural.es "http://www.elquehacerrural.es/controls/editarPalabrasControl.php" "Mozilla/5.0 (Windows; U; Windows NT 6.1; es-ES; rv:1.9.1.16) Gecko/20101130 Firefox/3.5.16 GTB7.1" "-"
77.231.128.44 - - [10/Jan/2011:07:59:05 +0100] "POST /controls/editarPalabrasControl.php HTTP/1.1" 200 1049 www.elquehacerrural.es "http://www.elquehacerrural.es/controls/editarPalabrasControl.php" "Mozilla/5.0 (Windows; U; Windows NT 6.1; es-ES; rv:1.9.1.16) Gecko/20101130 Firefox/3.5.16 GTB7.1" "-"
77.231.128.44 - - [10/Jan/2011:07:59:31 +0100] "POST /controls/editarPalabrasControl.php HTTP/1.1" 200 1014 www.elquehacerrural.es "http://www.elquehacerrural.es/controls/editarPalabrasControl.php" "Mozilla/5.0 (Windows; U; Windows NT 6.1; es-ES; rv:1.9.1.16) Gecko/20101130 Firefox/3.5.16 GTB7.1" "-"
77.231.128.44 - - [10/Jan/2011:08:00:42 +0100] "POST /controls/editarPalabrasControl.php HTTP/1.1" 200 1014 www.elquehacerrural.es "http://www.elquehacerrural.es/controls/editarPalabrasControl.php" "Mozilla/5.0 (Windows; U; Windows NT 6.1; es-ES; rv:1.9.1.16) Gecko/20101130 Firefox/3.5.16 GTB7.1" "-"
77.231.128.44 - - [10/Jan/2011:08:01:07 +0100] "POST /controls/editarPalabrasControl.php HTTP/1.1" 200 1021 www.elquehacerrural.es "http://www.elquehacerrural.es/controls/editarPalabrasControl.php" "Mozilla/5.0 (Windows; U; Windows NT 6.1; es-ES; rv:1.9.1.16) Gecko/20101130 Firefox/3.5.16 GTB7.1" "-"
77.231.128.44 - - [10/Jan/2011:08:01:30 +0100] "POST /controls/editarPalabrasControl.php HTTP/1.1" 200 1007 www.elquehacerrural.es "http://www.elquehacerrural.es/controls/editarPalabrasControl.php" "Mozilla/5.0 (Windows; U; Windows NT 6.1; es-ES; rv:1.9.1.16) Gecko/20101130 Firefox/3.5.16 GTB7.1" "-"
77.231.128.44 - - [10/Jan/2011:08:02:40 +0100] "POST /controls/editarPalabrasControl.php HTTP/1.1" 200 1021 www.elquehacerrural.es "http://www.elquehacerrural.es/controls/editarPalabrasControl.php" "Mozilla/5.0 (Windows; U; Windows NT 6.1; es-ES; rv:1.9.1.16) Gecko/20101130 Firefox/3.5.16 GTB7.1" "-"
77.231.128.44 - - [10/Jan/2011:08:03:00 +0100] "POST /controls/editarPalabrasControl.php HTTP/1.1" 200 1014 www.elquehacerrural.es "http://www.elquehacerrural.es/controls/editarPalabrasControl.php" "Mozilla/5.0 (Windows; U; Windows NT 6.1; es-ES; rv:1.9.1.16) Gecko/20101130 Firefox/3.5.16 GTB7.1" "-"
77.231.128.44 - - [10/Jan/2011:08:03:34 +0100] "POST /controls/editarPalabrasControl.php HTTP/1.1" 200 1021 www.elquehacerrural.es "http://www.elquehacerrural.es/controls/editarPalabrasControl.php" "Mozilla/5.0 (Windows; U; Windows NT 6.1; es-ES; rv:1.9.1.16) Gecko/20101130 Firefox/3.5.16 GTB7.1" "-"
77.231.128.44 - - [10/Jan/2011:08:03:54 +0100] "POST /controls/editarPalabrasControl.php HTTP/1.1" 200 1021 www.elquehacerrural.es "http://www.elquehacerrural.es/controls/editarPalabrasControl.php" "Mozilla/5.0 (Windows; U; Windows NT 6.1; es-ES; rv:1.9.1.16) Gecko/20101130 Firefox/3.5.16 GTB7.1" "-"
77.231.128.44 - - [10/Jan/2011:08:09:11 +0100] "POST /controls/editarPalabrasControl.php HTTP/1.1" 200 1056 www.elquehacerrural.es "http://www.elquehacerrural.es/controls/editarPalabrasControl.php" "Mozilla/5.0 (Windows; U; Windows NT 6.1; es-ES; rv:1.9.1.16) Gecko/20101130 Firefox/3.5.16 GTB7.1" "-"
77.231.128.44 - - [10/Jan/2011:08:09:41 +0100] "POST /controls/editarPalabrasControl.php HTTP/1.1" 200 1021 www.elquehacerrural.es "http://www.elquehacerrural.es/controls/editarPalabrasControl.php" "Mozilla/5.0 (Windows; U; Windows NT 6.1; es-ES; rv:1.9.1.16) Gecko/20101130 Firefox/3.5.16 GTB7.1" "-"
77.231.128.44 - - [10/Jan/2011:08:10:10 +0100] "POST /controls/editarPalabrasControl.php HTTP/1.1" 200 28872 www.elquehacerrural.es "http://www.elquehacerrural.es/controls/editarPalabrasControl.php" "Mozilla/5.0 (Windows; U; Windows NT 6.1; es-ES; rv:1.9.1.16) Gecko/20101130 Firefox/3.5.16 GTB7.1" "-"
77.231.128.44 - - [10/Jan/2011:08:10:50 +0100] "POST /controls/editarPalabrasControl.php HTTP/1.1" 200 1021 www.elquehacerrural.es "http://www.elquehacerrural.es/controls/editarPalabrasControl.php" "Mozilla/5.0 (Windows; U; Windows NT 6.1; es-ES; rv:1.9.1.16) Gecko/20101130 Firefox/3.5.16 GTB7.1" "-"
77.231.128.44 - - [10/Jan/2011:08:11:19 +0100] "POST /controls/editarPalabrasControl.php HTTP/1.1" 200 1007 www.elquehacerrural.es "http://www.elquehacerrural.es/controls/editarPalabrasControl.php" "Mozilla/5.0 (Windows; U; Windows NT 6.1; es-ES; rv:1.9.1.16) Gecko/20101130 Firefox/3.5.16 GTB7.1" "-"
77.231.128.44 - - [10/Jan/2011:08:12:18 +0100] "POST /controls/editarPalabrasControl.php HTTP/1.1" 200 1007 www.elquehacerrural.es "http://www.elquehacerrural.es/controls/editarPalabrasControl.php" "Mozilla/5.0 (Windows; U; Windows NT 6.1; es-ES; rv:1.9.1.16) Gecko/20101130 Firefox/3.5.16 GTB7.1" "-"
77.231.128.44 - - [10/Jan/2011:08:12:40 +0100] "POST /controls/editarPalabrasControl.php HTTP/1.1" 200 1007 www.elquehacerrural.es "http://www.elquehacerrural.es/controls/editarPalabrasControl.php" "Mozilla/5.0 (Windows; U; Windows NT 6.1; es-ES; rv:1.9.1.16) Gecko/20101130 Firefox/3.5.16 GTB7.1" "-"
77.231.128.44 - - [10/Jan/2011:08:13:19 +0100] "POST /controls/editarPalabrasControl.php HTTP/1.1" 200 1021 www.elquehacerrural.es "http://www.elquehacerrural.es/controls/editarPalabrasControl.php" "Mozilla/5.0 (Windows; U; Windows NT 6.1; es-ES; rv:1.9.1.16) Gecko/20101130 Firefox/3.5.16 GTB7.1" "-"
77.231.128.44 - - [10/Jan/2011:08:19:03 +0100] "POST /controls/editarPalabrasControl.php HTTP/1.1" 200 1056 www.elquehacerrural.es "http://www.elquehacerrural.es/controls/editarPalabrasControl.php" "Mozilla/5.0 (Windows; U; Windows NT 6.1; es-ES; rv:1.9.1.16) Gecko/20101130 Firefox/3.5.16 GTB7.1" "-"
77.231.128.44 - - [10/Jan/2011:08:19:27 +0100] "POST /controls/editarPalabrasControl.php HTTP/1.1" 200 1021 www.elquehacerrural.es "http://www.elquehacerrural.es/controls/editarPalabrasControl.php" "Mozilla/5.0 (Windows; U; Windows NT 6.1; es-ES; rv:1.9.1.16) Gecko/20101130 Firefox/3.5.16 GTB7.1" "-"
77.231.128.44 - - [10/Jan/2011:08:21:45 +0100] "POST /controls/editarPalabrasControl.php HTTP/1.1" 200 1042 www.elquehacerrural.es "http://www.elquehacerrural.es/controls/editarPalabrasControl.php" "Mozilla/5.0 (Windows; U; Windows NT 6.1; es-ES; rv:1.9.1.16) Gecko/20101130 Firefox/3.5.16 GTB7.1" "-"
77.231.128.44 - - [10/Jan/2011:08:22:12 +0100] "POST /controls/editarPalabrasControl.php HTTP/1.1" 200 1021 www.elquehacerrural.es "http://www.elquehacerrural.es/controls/editarPalabrasControl.php" "Mozilla/5.0 (Windows; U; Windows NT 6.1; es-ES; rv:1.9.1.16) Gecko/20101130 Firefox/3.5.16 GTB7.1" "-"
77.231.128.44 - - [10/Jan/2011:08:22:36 +0100] "POST /controls/editarPalabrasControl.php HTTP/1.1" 200 1021 www.elquehacerrural.es "http://www.elquehacerrural.es/controls/editarPalabrasControl.php" "Mozilla/5.0 (Windows; U; Windows NT 6.1; es-ES; rv:1.9.1.16) Gecko/20101130 Firefox/3.5.16 GTB7.1" "-"
77.231.128.44 - - [10/Jan/2011:08:23:00 +0100] "POST /controls/editarPalabrasControl.php HTTP/1.1" 200 1021 www.elquehacerrural.es "http://www.elquehacerrural.es/controls/editarPalabrasControl.php" "Mozilla/5.0 (Windows; U; Windows NT 6.1; es-ES; rv:1.9.1.16) Gecko/20101130 Firefox/3.5.16 GTB7.1" "-"
77.231.128.44 - - [10/Jan/2011:08:23:33 +0100] "POST /controls/editarPalabrasControl.php HTTP/1.1" 200 1282376 www.elquehacerrural.es "http://www.elquehacerrural.es/controls/editarPalabrasControl.php" "Mozilla/5.0 (Windows; U; Windows NT 6.1; es-ES; rv:1.9.1.16) Gecko/20101130 Firefox/3.5.16 GTB7.1" "-"
77.231.128.44 - - [10/Jan/2011:08:24:19 +0100] "POST /controls/editarPalabrasControl.php HTTP/1.1" 200 1014 www.elquehacerrural.es "http://www.elquehacerrural.es/controls/editarPalabrasControl.php" "Mozilla/5.0 (Windows; U; Windows NT 6.1; es-ES; rv:1.9.1.16) Gecko/20101130 Firefox/3.5.16 GTB7.1" "-"
77.231.128.44 - - [10/Jan/2011:08:24:57 +0100] "POST /controls/editarPalabrasControl.php HTTP/1.1" 200 1021 www.elquehacerrural.es "http://www.elquehacerrural.es/controls/editarPalabrasControl.php" "Mozilla/5.0 (Windows; U; Windows NT 6.1; es-ES; rv:1.9.1.16) Gecko/20101130 Firefox/3.5.16 GTB7.1" "-"
77.231.128.44 - - [10/Jan/2011:08:25:30 +0100] "POST /controls/editarPalabrasControl.php HTTP/1.1" 200 1014 www.elquehacerrural.es "http://www.elquehacerrural.es/controls/editarPalabrasControl.php" "Mozilla/5.0 (Windows; U; Windows NT 6.1; es-ES; rv:1.9.1.16) Gecko/20101130 Firefox/3.5.16 GTB7.1" "-"
77.231.128.44 - - [10/Jan/2011:08:27:41 +0100] "POST /controls/editarPalabrasControl.php HTTP/1.1" 200 1021 www.elquehacerrural.es "http://www.elquehacerrural.es/controls/editarPalabrasControl.php" "Mozilla/5.0 (Windows; U; Windows NT 6.1; es-ES; rv:1.9.1.16) Gecko/20101130 Firefox/3.5.16 GTB7.1" "-"
77.231.128.44 - - [10/Jan/2011:08:31:11 +0100] "POST /controls/editarPalabrasControl.php HTTP/1.1" 200 1021 www.elquehacerrural.es "http://www.elquehacerrural.es/controls/editarPalabrasControl.php" "Mozilla/5.0 (Windows; U; Windows NT 6.1; es-ES; rv:1.9.1.16) Gecko/20101130 Firefox/3.5.16 GTB7.1" "-"
77.231.128.44 - - [10/Jan/2011:08:31:47 +0100] "POST /controls/editarPalabrasControl.php HTTP/1.1" 200 1007 www.elquehacerrural.es "http://www.elquehacerrural.es/controls/editarPalabrasControl.php" "Mozilla/5.0 (Windows; U; Windows NT 6.1; es-ES; rv:1.9.1.16) Gecko/20101130 Firefox/3.5.16 GTB7.1" "-"
77.231.128.44 - - [10/Jan/2011:08:32:09 +0100] "POST /controls/editarPalabrasControl.php HTTP/1.1" 200 1021 www.elquehacerrural.es "http://www.elquehacerrural.es/controls/editarPalabrasControl.php" "Mozilla/5.0 (Windows; U; Windows NT 6.1; es-ES; rv:1.9.1.16) Gecko/20101130 Firefox/3.5.16 GTB7.1" "-"
77.231.128.44 - - [10/Jan/2011:08:33:33 +0100] "POST /controls/editarPalabrasControl.php HTTP/1.1" 200 1035 www.elquehacerrural.es "http://www.elquehacerrural.es/controls/editarPalabrasControl.php" "Mozilla/5.0 (Windows; U; Windows NT 6.1; es-ES; rv:1.9.1.16) Gecko/20101130 Firefox/3.5.16 GTB7.1" "-"
77.231.128.44 - - [10/Jan/2011:08:33:57 +0100] "POST /controls/editarPalabrasControl.php HTTP/1.1" 200 1321 www.elquehacerrural.es "http://www.elquehacerrural.es/controls/editarPalabrasControl.php" "Mozilla/5.0 (Windows; U; Windows NT 6.1; es-ES; rv:1.9.1.16) Gecko/20101130 Firefox/3.5.16 GTB7.1" "-"
77.231.128.44 - - [10/Jan/2011:08:34:57 +0100] "POST /controls/editarPalabrasControl.php HTTP/1.1" 200 1986 www.elquehacerrural.es "http://www.elquehacerrural.es/controls/editarPalabrasControl.php" "Mozilla/5.0 (Windows; U; Windows NT 6.1; es-ES; rv:1.9.1.16) Gecko/20101130 Firefox/3.5.16 GTB7.1" "-"
77.231.128.44 - - [10/Jan/2011:08:35:47 +0100] "POST /controls/editarPalabrasControl.php HTTP/1.1" 200 1021 www.elquehacerrural.es "http://www.elquehacerrural.es/controls/editarPalabrasControl.php" "Mozilla/5.0 (Windows; U; Windows NT 6.1; es-ES; rv:1.9.1.16) Gecko/20101130 Firefox/3.5.16 GTB7.1" "-"
77.231.128.44 - - [10/Jan/2011:08:36:12 +0100] "POST /controls/editarPalabrasControl.php HTTP/1.1" 200 1007 www.elquehacerrural.es "http://www.elquehacerrural.es/controls/editarPalabrasControl.php" "Mozilla/5.0 (Windows; U; Windows NT 6.1; es-ES; rv:1.9.1.16) Gecko/20101130 Firefox/3.5.16 GTB7.1" "-"
77.231.128.44 - - [10/Jan/2011:08:37:27 +0100] "POST /controls/editarPalabrasControl.php HTTP/1.1" 200 1007 www.elquehacerrural.es "http://www.elquehacerrural.es/controls/editarPalabrasControl.php" "Mozilla/5.0 (Windows; U; Windows NT 6.1; es-ES; rv:1.9.1.16) Gecko/20101130 Firefox/3.5.16 GTB7.1" "-"
77.231.128.44 - - [10/Jan/2011:09:46:25 +0100] "GET /controls/editarPalabrasControl.php HTTP/1.1" 200 1021 www.elquehacerrural.es "-" "Mozilla/5.0 (Windows; U; Windows NT 6.1; es-ES; rv:1.9.1.16) Gecko/20101130 Firefox/3.5.16 GTB7.1" "-"
77.231.128.44 - - [10/Jan/2011:09:46:30 +0100] "GET /favicon.ico HTTP/1.1" 404 2301 www.elquehacerrural.es "-" "Mozilla/5.0 (Windows; U; Windows NT 6.1; es-ES; rv:1.9.1.16) Gecko/20101130 Firefox/3.5.16 GTB7.1" "-"
77.231.128.44 - - [10/Jan/2011:09:47:01 +0100] "GET /controls/editarPalabrasControl.php HTTP/1.1" 200 1021 www.elquehacerrural.es "-" "Mozilla/5.0 (Windows; U; Windows NT 6.1; es-ES; rv:1.9.1.16) Gecko/20101130 Firefox/3.5.16 GTB7.1" "-"
77.231.128.44 - - [10/Jan/2011:09:47:05 +0100] "GET /favicon.ico HTTP/1.1" 404 2301 www.elquehacerrural.es "-" "Mozilla/5.0 (Windows; U; Windows NT 6.1; es-ES; rv:1.9.1.16) Gecko/20101130 Firefox/3.5.16 GTB7.1" "-"
